com\lqt\service\ipml\Passengers_Pnformation_Service_Ipml.class
com\lqt\common\ResponseList.class
com\lqt\dao\IPassengers_Pnformation.class
com\lqt\entity\Passengers_Pnformation.class
com\lqt\utils\PathUtil.class
com\lqt\utils\Tools.class
com\lqt\utils\ConfigUtil.class
com\lqt\utils\PublicUtil.class
com\lqt\entity\Users_Information.class
com\lqt\entity\Users_Passengers_Relationship.class
com\lqt\utils\URLtoUTF8.class
com\lqt\service\Users_Passengers_Relationship_Service.class
com\lqt\common\ResponseObj.class
com\lqt\service\ipml\Users_Passengers_Relationship_Service_Ipml.class
com\lqt\utils\GsonUtils$1.class
com\lqt\utils\MD5Util.class
com\lqt\utils\StringUtils$2.class
com\lqt\utils\RandomUtil.class
com\lqt\utils\GsonUtils.class
com\lqt\service\ipml\Users_Information_Service_Ipml.class
com\lqt\utils\ByteUtil.class
com\lqt\controller\LonginAndReg.class
com\lqt\utils\HexUtil.class
com\lqt\service\Users_Information_Service.class
com\lqt\utils\FileUpload.class
com\lqt\dao\IUsers_Passengers_Relationship.class
com\lqt\dao\IUsers_Information.class
com\lqt\service\Passengers_Pnformation_Service.class
com\lqt\utils\GsonUtils$2.class
com\lqt\utils\StringUtils.class
com\lqt\common\ToJsp.class
com\lqt\utils\StringUtils$1.class
