E:\workspace\Intellijava\SSMApps\AirPleanApp\src\main\java\com\lqt\utils\MD5Util.java
E:\workspace\Intellijava\SSMApps\AirPleanApp\src\main\java\com\lqt\service\Passengers_Pnformation_Service.java
E:\workspace\Intellijava\SSMApps\AirPleanApp\src\main\java\com\lqt\service\Users_Passengers_Relationship_Service.java
E:\workspace\Intellijava\SSMApps\AirPleanApp\src\main\java\com\lqt\common\ResponseList.java
E:\workspace\Intellijava\SSMApps\AirPleanApp\src\main\java\com\lqt\entity\Users_Information.java
E:\workspace\Intellijava\SSMApps\AirPleanApp\src\main\java\com\lqt\entity\Passengers_Pnformation.java
E:\workspace\Intellijava\SSMApps\AirPleanApp\src\main\java\com\lqt\utils\RandomUtil.java
E:\workspace\Intellijava\SSMApps\AirPleanApp\src\main\java\com\lqt\service\ipml\Passengers_Pnformation_Service_Ipml.java
E:\workspace\Intellijava\SSMApps\AirPleanApp\src\main\java\com\lqt\utils\ByteUtil.java
E:\workspace\Intellijava\SSMApps\AirPleanApp\src\main\java\com\lqt\common\ToJsp.java
E:\workspace\Intellijava\SSMApps\AirPleanApp\src\main\java\com\lqt\utils\GsonUtils.java
E:\workspace\Intellijava\SSMApps\AirPleanApp\src\main\java\com\lqt\dao\IPassengers_Pnformation.java
E:\workspace\Intellijava\SSMApps\AirPleanApp\src\main\java\com\lqt\entity\Users_Passengers_Relationship.java
E:\workspace\Intellijava\SSMApps\AirPleanApp\src\main\java\com\lqt\service\Users_Information_Service.java
E:\workspace\Intellijava\SSMApps\AirPleanApp\src\main\java\com\lqt\service\ipml\Users_Passengers_Relationship_Service_Ipml.java
E:\workspace\Intellijava\SSMApps\AirPleanApp\src\main\java\com\lqt\utils\HexUtil.java
E:\workspace\Intellijava\SSMApps\AirPleanApp\src\main\java\com\lqt\utils\StringUtils.java
E:\workspace\Intellijava\SSMApps\AirPleanApp\src\main\java\com\lqt\utils\ConfigUtil.java
E:\workspace\Intellijava\SSMApps\AirPleanApp\src\main\java\com\lqt\dao\IUsers_Passengers_Relationship.java
E:\workspace\Intellijava\SSMApps\AirPleanApp\src\main\java\com\lqt\utils\PublicUtil.java
E:\workspace\Intellijava\SSMApps\AirPleanApp\src\main\java\com\lqt\common\ResponseObj.java
E:\workspace\Intellijava\SSMApps\AirPleanApp\src\main\java\com\lqt\controller\LonginAndReg.java
E:\workspace\Intellijava\SSMApps\AirPleanApp\src\main\java\com\lqt\dao\IUsers_Information.java
E:\workspace\Intellijava\SSMApps\AirPleanApp\src\main\java\com\lqt\utils\URLtoUTF8.java
E:\workspace\Intellijava\SSMApps\AirPleanApp\src\main\java\com\lqt\service\ipml\Users_Information_Service_Ipml.java
E:\workspace\Intellijava\SSMApps\AirPleanApp\src\main\java\com\lqt\utils\PathUtil.java
E:\workspace\Intellijava\SSMApps\AirPleanApp\src\main\java\com\lqt\utils\FileUpload.java
E:\workspace\Intellijava\SSMApps\AirPleanApp\src\main\java\com\lqt\utils\Tools.java
